0,1,2,4,8,16,32,64,128,256,512,1024,2048,4096,8192,16384,32768,65536,131072,262144,524288,1048576,2097152,4194304
0.44,0.51,0.50,0.51,0.50,0.49,0.49,0.52,0.61,0.63,0.88,1.04,1.35,3.96,4.85,6.70,9.39,14.88,25.45,46.61,88.95,187.22,1290.36,2910.32
0.45,0.51,0.51,0.51,0.51,0.49,0.49,0.53,1.20,1.45,2.14,2.98,4.76,4.84,5.72,7.62,10.34,15.94,26.81,48.11,94.89,190.35,383.28,2579.44
0.54,0.71,0.71,0.71,0.71,0.82,0.82,0.89,1.16,1.36,1.99,2.81,4.42,4.81,5.72,7.49,10.22,15.81,26.54,48.45,91.48,182.04,375.65,2594.25
0.45,0.49,0.49,0.49,0.49,0.48,0.48,0.52,0.60,0.63,0.87,1.04,1.33,3.87,4.80,6.58,9.77,14.57,24.98,45.78,87.55,175.89,1281.52,2876.54
0.45,0.50,0.51,0.50,0.50,0.49,0.49,0.52,0.61,0.64,0.86,1.03,1.34,4.03,4.94,6.65,9.34,14.85,25.52,46.78,89.87,181.80,1299.26,2907.09
0.53,0.73,0.73,0.73,0.73,0.84,0.84,0.94,1.22,1.47,2.18,3.01,4.76,4.80,5.75,7.57,10.26,15.83,26.47,48.54,91.75,178.93,370.41,2598.97
0.45,0.51,0.51,0.51,0.51,0.49,0.49,0.53,0.61,0.64,0.87,1.04,1.35,3.96,4.90,6.66,9.31,14.75,25.51,46.78,91.71,182.49,1303.44,2913.78
0.45,0.51,0.51,0.51,0.50,0.49,0.49,0.53,0.61,0.64,0.88,1.04,1.35,4.04,4.95,6.73,9.42,14.89,25.53,46.69,89.26,178.97,1289.52,2909.19
0.46,0.50,0.50,0.50,0.50,0.49,0.48,0.52,0.60,0.63,0.87,1.04,1.35,3.92,4.82,6.66,9.29,14.70,25.39,46.52,88.73,177.70,1295.05,2903.05
0.46,0.51,0.50,0.51,0.50,0.49,0.50,0.53,0.61,0.63,0.86,1.03,1.35,3.89,4.84,6.64,9.31,14.76,25.35,46.50,93.16,188.71,1305.89,2904.28
