  Loading openmpi/4.0.3 for compiler gnu-4.8.5
# OSU MPI Bandwidth Test v5.8
# Size      Bandwidth (MB/s)
1                       4.62
2                       9.32
4                      18.77
8                      37.42
16                     63.92
32                    133.72
64                    219.80
128                   363.11
256                   618.42
512                  1365.07
1024                 2485.06
2048                 4164.58
4096                 1332.61
8192                 2073.15
16384                2779.55
32768                3792.94
65536                4593.38
131072               5224.82
262144               5640.93
524288               5879.22
1048576              5762.19
2097152              5549.63
4194304              1612.22
