0                       0.44
1                       0.50
2                       0.50
4                       0.50
8                       0.50
16                      0.49
32                      0.49
64                      0.52
128                     0.60
256                     0.63
512                     0.86
1024                    1.03
2048                    1.34
4096                    3.91
8192                    4.77
16384                   6.61
32768                   9.27
65536                  14.74
131072                 25.38
262144                 46.72
524288                 91.16
1048576               182.67
2097152              1301.34
4194304              2906.14
